-8 -16 -16 16 -40 -24 -32 -40 736
-16 24 -576 -32 -272 32
-24 -32 -16 -8 -40 -8 -48 -720 32
-48 24 -24 -24 328 -56 -24 408
-16 -32 -8 -48 -24 -16 -48 -184 -48 496
-48 48 -16 -48 24 -8 40 -56 -72 -32 520
-56 -8 -32 -16 432 -32 -16 -32 -48 -16 -24 192
-16 -16 -64 -600 40 -40 168
-72 16 -24 856
168 -16 -480 304
128 -40 -40 760
-32 -32 200 -8 688
208 -40 -16 704
-40 64 -8 -8 840
-8 -16 -40 48 -16 -40 776
16 -16 -160 776
40 -32 -56 24 -720 80
-16 -40 -64 16 -40 776
152 -8 -16 792
160 -8 -16 -32 -48 -24 656
