96 -72 -16 8 -16 -32 704
-24 -24 168 -32 -32 672
48 -48 72 -72 24 -8 672
-40 -8 8 -120 -48 728
152 -24 -24 -24 736
56 -56 -56 -32 -24 -8 712
-8 -48 32 -24 -16 -40 776
-48 56 -64 72 -56 -64 -56 520
-8 -48 -40 64 -72 -32 -24 -16 -8 -40 -48 504
64 -32 88 -48 -24 -56 632
-8 -24 -40 -72 -40 -24 -8 -72 640
8 -40 -48 -56 -72 728
